EDA Workshop
…
data <- read_csv("raw_data/data.csv")

Rows: 1786 Columns: 4
── Column specification ────────────────────────────────────────────────────────
Delimiter: ","
chr (1): sex
dbl (3): id, steps, BMI

ℹ Use `spec()` to retrieve the full column specification for this data.
ℹ Specify the column types or set `show_col_types = FALSE` to quiet this message.

data

# A tibble: 1,786 × 4
      id steps   BMI sex  
   <dbl> <dbl> <dbl> <chr>
 1     1     0  35   male 
 2     2   522  21   male 
 3     3  1430  32   male 
 4     4  1906  33.6 male 
 5     5  2171  30.2 male 
 6     6  2296  27.2 male 
 7     7  2516  28   male 
 8     8  2614  28.4 male 
 9     9  2667  27.5 male 
10    10  2784  28.7 male 
# ℹ 1,776 more rows
…
